{
    "host": "localhost",
    "frontend": "http://ochefegastronomia.com",
    "port": 8080,
    "mongodb": "mongodb://feira-admin:banan%40@feira0-shard-00-00-1dzet.mongodb.net:27017,feira0-shard-00-01-1dzet.mongodb.net:27017,feira0-shard-00-02-1dzet.mongodb.net:27017/admin?replicaSet=Feira0-shard-0&readPreference=primary&ssl=true"
}